…
# SignIT on a Simulated Mutation Catalog

In order to further illustrate the components of SignIT analysis, this next portion will simulate a catalog of somatic mutations.

In this vignette, we will demonstrate using the 30 reference mutation signatures defined on the [COSMIC](http://cancer.sanger.ac.uk/cosmic/signatures) website. The corresponding matrix of mutation signature probabilities can be downloaded [here](http://cancer.sanger.ac.uk/cancergenome/assets/signatures_probabilities.txt). This dataset is built into SignIT and can be accessed via the get_reference_signatures method.


```r
reference_signatures <- get_reference_signatures()
print(reference_signatures)
```

```
## # A tibble: 96 x 31
##    mutation_type `Signature 1` `Signature 2` `Signature 3` `Signature 4`
##            <chr>         <dbl>         <dbl>         <dbl>         <dbl>
##  1       A[C>A]A   0.011098326  6.827082e-04   0.022172307        0.0365
##  2       A[C>A]C   0.009149341  6.191072e-04   0.017871675        0.0309
##  3       A[C>A]G   0.001490070  9.927896e-05   0.002138340        0.0183
##  4       A[C>A]T   0.006233885  3.238914e-04   0.016265146        0.0243
##  5       A[C>G]A   0.001801068  2.634810e-04   0.024002615        0.0097
##  6       A[C>G]C   0.002580909  2.698660e-04   0.012160304        0.0054
##  7       A[C>G]G   0.000592548  2.192339e-04   0.005275419        0.0031
##  8       A[C>G]T   0.002963986  6.109735e-04   0.023277656        0.0054
##  9       A[C>T]A   0.029514533  7.441557e-03   0.017872171        0.0120
## 10       A[C>T]C   0.014322747  2.726312e-03   0.008896034        0.0075
## # ... with 86 more rows, and 26 more variables: `Signature 5` <dbl>,
## #   `Signature 6` <dbl>, `Signature 7` <dbl>, `Signature 8` <dbl>,
## #   `Signature 9` <dbl>, `Signature 10` <dbl>, `Signature 11` <dbl>,
## #   `Signature 12` <dbl>, `Signature 13` <dbl>, `Signature 14` <dbl>,
## #   `Signature 15` <dbl>, `Signature 16` <dbl>, `Signature 17` <dbl>,
## #   `Signature 18` <dbl>, `Signature 19` <dbl>, `Signature 20` <dbl>,
## #   `Signature 21` <dbl>, `Signature 22` <dbl>, `Signature 23` <dbl>,
## #   `Signature 24` <dbl>, `Signature 25` <dbl>, `Signature 26` <dbl>,
## #   `Signature 27` <dbl>, `Signature 28` <dbl>, `Signature 29` <dbl>,
…
# Randomize the order to simulated catalog to test that functions are robust to reordering
simulated_catalog <- simulated_catalog[sample(1:dim(simulated_catalog)[1], replace = FALSE), ]
print(simulated_catalog)
```

```
## # A tibble: 96 x 2
##    mutation_type count
##            <chr> <dbl>
##  1       C[T>A]A     9
##  2       C[C>A]T    13
##  3       T[T>A]G     7
##  4       A[T>G]A     2
##  5       A[T>A]C     6
##  6       C[C>G]A    18
##  7       C[T>G]C     5
##  8       A[C>T]G     9
##  9       T[T>C]T     6
## 10       T[C>G]C    24
## # ... with 86 more rows
```
…
